{
  "name": "Avatar",
  "base": "PersistedModel",
  "idInjection": true,
  "options": {
    "validateUpsert": true
  },
  "properties": {
    "name": {
      "type": "string"
    },
    "type": {
      "type": "string"
    },
    "url": {
      "type": "string",
      "required": true
    },
    "container": {
      "type": "string"
    }
  },
  "validations": [],
  "relations": {},
  "acls": [],
  "methods": {}
}
